{
  "en": {
    "lang": "en",
    "site": "https://fbs.com",
    "p0": "Dreaming of life like in the movies?",
    "p1": "FBS can make it real!",
    "p2": "What do we offer?",
    "p3": "Alternative ways to earn extra income more quickly!",
    "f1": "Your full name",
    "f2": "E-mail",
    "f3": "I accept Customer Agreement conditions and accept all risks inherent with trading operations on the world financial markets.",
    "f4": "Agreement",
    "f5": "Open account",
    "p4": "Why trading with FBS is one of the best things talking about additional income?",
    "p5": "Quick profits",
    "p6": "Within the very first month of trading, trader's profit could many times exceed the invested funds.",
    "p7": "Easy start",
    "p8": "You can start making money from $1 deposit and very soon you will afford yourself to level up your lifestyle.",
    "p9": "From beginner to professional",
    "p10": "If you are just starting your way to success on Forex, FBS’s team of highly-qualified specialists is ready to help you 24/7.",
    "p11": "Dreams come true",
    "p12": "We regularly hold contests and advantageous promotions, participate and win your dream in a second!",
    "p13": "Why choose FBS?",
    "p14": "Learning opportunities",
    "p15": "Even if you've never traded on Forex before, our training seminars and webinars will help you quickly understand the basics. You are welcome to use expert reviews from our leading financial analysts, which will help you make the right decisions for increasing your profit.",
    "p16": "Promotions and bonuses",
    "p17": "We offer the most favorable conditions to start your career in trading. Create an account and choose a preferred monetary bonus, and all the income you get from it is completely yours!",
    "p18": "24/7 support in your native language",
    "p19": "If you have any questions, our support team is always ready to help. They will promptly answer all your questions about trading through chat or by phone.",
    "p20": "Convenient financial transactions",
    "p21": "FBS supports deposit and withdrawal of funds via a variety of international and local payment systems and banks."
  },
  "ar": {
    "lang": "ar",
    "site": "https://fbs.ae",
    "p0": "هل تحلم بحياة كتلك التي في الأفلام؟",
    "p1": "يمكن لـ FBS أن تحقق حلمك!",
    "p2": "ما الذي نعرضه؟",
    "p3": "طرق بديلة للحصول على دخل إضافي بسرعة أكبر!",
    "f1": "الاسم الكامل",
    "f2": "البريد الإلكتروني",
    "f3": "لقد قرأت ووافقت على أحكام وشروطاتفاقية الشراكة",
    "f4": "اتفاقية الشراكة",
    "f5": "افتح حساب",
    "p4": "لماذا يعتبر التداول مع FBS الخيار الأول عند الحديث عن الدخل الإضافي؟",
    "p5": "أرباح سريعة",
    "p6": "خلال الشهر الأول للتداول, قد يتجاوز ربح المتداول مبلغ الاستثمار بعدة مرات.",
    "p7": "بداية سهلة",
    "p8": "يمكنك البدء بكسب المال بدءا من إيداع بقيمة 1$ وستتمكن سريعا من تحسين ظروف حياتك.",
    "p9": "من مبتدئ إلى محترف",
    "p10": "إذا كنت قد بدأت رحلتك نحو النجاح في عالم الفوركس للتو, فريق FBS من الخبراء والمحترفين حاضرون لمساعدتك 24/7.",
    "p11": "الأحلام تتحقق",
    "p12": "لدينا مسابقة دورية وعروض مميزة, شارك, اربح, وحقق حلمك في ثانية!",
    "p13": "لماذا عليك اختيار FBS؟",
    "p14": "فرص التعلم",
    "p15": "حتى لو لم تتداول في الفوركس مطلقا من قبل, ستساعدك سيميناراتنا التعليمية والإلكترونية على فهم الأساسيات بأسرع وقت ممكن. يسرنا أن تستفيد من نصائح وخبرات محللينا المحترفين, والتي ستساعدك على اتخاذ القرارات الصحيحة لزيادة أرباحك.",
    "p16": "العروض والبونصات",
    "p17": "نقدم أفضل الظروف لتبدأ رحلتك في عالم التداول. افتح حسابا واختر البونص الأنسب لك, وما ستحصل عليه من مال عبر هذا البونص, سيكون لك بالكامل!",
    "p18": "خدمة عملاء 24/7 بلغتك الأم",
    "p19": "إذا كانت لديك أية أسئلة, خدمة عملائنا حاضرون دائما لمساعدتك. سيجيبون على الفور عن كل أسئلتك بخصوص التداول عبر التشات أو الهاتف.",
    "p20": "صفقات مالية مريحة",
    "p21": "تدعم FBS إيداع وسحب الأموال عبر مجموعة متنوعة من أنظمة الدفع والبنوك العالمية."
  },
  "cn": {
    "lang": "cn",
    "site": "https://fbs.cn",
    "p0": "梦想过电影般的生活？",
    "p1": "FBS公司能使您梦想成真！",
    "p2": "我们可以提供什么？",
    "p3": "用不同的方法更快速获得额外收入！",
    "f1": "您的姓名",
    "f2": "电子邮件",
    "f3": "我已阅读并同意IB协议的条款及细则",
    "f4": "IB协议",
    "f5": "开帐户",
    "p4": "为什么用FBS交易平台进行外汇交易是获得额外收入的最佳方法之一？",
    "p5": "快速获利",
    "p6": "从开始交易的第一个月起，交易的利润就可以翻投资金额好几翻。",
    "p7": "起步简单",
    "p8": "你可以从1美金存款开始赚钱，很快就能够提高自己的生活质量了。",
    "p9": "从初学者到专业人员",
    "p10": "如果您是外汇交易的新手，FBS团队的高级专家们将7天24小时随时为您服务。",
    "p11": "梦想成真",
    "p12": "我们定期举办比赛以及促销活动，来参加活动，瞬间就可以让您梦想成真！",
    "p13": "为什么选择FBS？",
    "p14": "更多的学习机会",
    "p15": "即使您之前从未交易过外汇，我们的培训讲座和线上讲座将帮助您快速了解基本交易常识。欢迎您对我们的专家和金融分析师做出点评，他们将帮助您做出正确的决定并增加您的盈利。",
    "p16": "优惠活动和奖金",
    "p17": "我们在您即将开始的外汇职业生涯中，提供最有利的条件。创建一个交易账户，并选择交易奖金，所获的全部收入都是您的！",
    "p18": "7天24小时的汉语客服支持",
    "p19": "如果您有任何问题，我们的团队非常乐意为您解答。他们还会快速通过聊天或者电话解决您在交易中遇到的难题。",
    "p20": "方便快捷的金融交易",
    "p21": "FBS 公司支持国际以及当地支付系统为客户提供存款和提款服务。"
  },
  "es": {
    "lang": "es",
    "site": "https://esfbs.com",
    "p0": "¿Sueña con vivir como en las películas?",
    "p1": "¡FBS puede hacerlo realidad!",
    "p2": "¿Qué ofrecemos?",
    "p3": "¡Formas alternativas de ganar ingreso extra más rápidamente!",
    "f1": "Su nombre completo",
    "f2": "E-mail",
    "f3": "He leído y estoy de acuerdo con los Términos y Condiciones de IB Agreement",
    "f4": "IB Agreement",
    "f5": "Abrir una cuenta",
    "p4": "¿Por qué el comercio bursátil con FBS es una de las mejores cosas al hablar de ingreso adicional?",
    "p5": "Rápidas ganancias",
    "p6": "Antes del concluir el primer mes de operaciones bursátiles, las ganancias del trader podrían muy bien exceder por mucho los fondos invertidos.",
    "p7": "Fácil comienzo",
    "p8": "Puede empezar a ganar dinero comenzando con un depósito de $1 y muy pronto se podrá permitir aumentar su nivel de vida.",
    "p9": "Desde principiante hasta profesional",
    "p10": "Si apenas está usted empezando su camino al éxito en Forex, el equipo de especialistas altamente calificados de FBS está listo para ayudarle las 24 horas, los 7 días de la semana.",
    "p11": "Los Sueños se vuelven realidad",
    "p12": "Celebramos concursos y ventajosas promociones regularmente, ¡participe y gane su sueños en un segundo!",
    "p13": "¿Por qué elegir FBS?",
    "p14": "Oportunidades de aprendizaje",
    "p15": "Incluso si nunca antes ha usted operado con Forex, nuestros cursos y seminarios le ayudarán a comprender rápidamente los conceptos básicos. Siéntase libre de usar las reseñas expertas de nuestros destacados analistas financieros, que le ayudarán a hacer la decisión correcta para incrementar sus ganancias.",
    "p16": "Promociones y bonos",
    "p17": "Ofrecemos las condiciones más favorables para iniciar su carrera en el comercio bursátil. Cree una cuenta y escoja un bono monetario preferido, ¡y todo el ingreso que obtenga usándolo es completamente suyo!",
    "p18": "Soporte las 24 horas, 7 días a la semana en su lengua materna.",
    "p19": "Si usted tiene alguna pregunta, nuestro equipo de soporte siempre está listo para ayudar. Rápidamente responderán todas sus preguntas sobre operaciones bursátiles a través del chat o por teléfono.",
    "p20": "Convenientes operaciones financieras",
    "p21": "FBS admite depósitos y retiros de fondos a través de una variedad de sistemas de pago locales e internacionales y los bancos."
  },
  "id": {
    "lang": "id",
    "site": "https://fbs.id",
    "p0": "Memimpikan kehidupan seperti di dalam film - film?",
    "p1": "FBS bisa membuat itu menjadi kenyataan!",
    "p2": "Apa yang kami tawarkan?",
    "p3": "Cara alternatif untuk mendapat penghasilan tambahan dengan lebih cepat!",
    "f1": "Nama lengkap",
    "f2": "E-mail",
    "f3": "Saya menyetujui semua syarat dan ketentuan dari Perjanjian Mitra FBS",
    "f4": "Perjanjian Mitra FBS",
    "f5": "Buka akun",
    "p4": "Mengapa trading di FBS menjadi salah satu hal terbaik jika berbicara mengenai penghasilan tambahan?",
    "p5": "Cepat mendapat profit",
    "p6": "Dalam bulan pertama trading biasanya trader sudah mampu menghasilkan profit yang melebihi depositnya.",
    "p7": "Mudah untuk dimulai",
    "p8": "Anda bisa mendapat profit hanya dengan deposit $1, dan segera setelah itu Anda akan mampu meningkatkan gaya hidup Anda.",
    "p9": "Dari trader pemula sampai trader profesional",
    "p10": "Jika Anda baru memulai langkah Anda untuk menuju kesuksesan di Forex, maka tim spesialis FBS siap membantu Anda 24 jam 7 hari.",
    "p11": "Mewujudkan impian Anda",
    "p12": "Kami secara teratur mengadakan kontes dan promosi yang menguntungkan, ikuti dan wujudkan impian Anda dalam waktu beberapa detik!",
    "p13": "Mengapa wajib memilih FBS?",
    "p14": "FBS menawarkan kesempatan untuk belajar trading",
    "p15": "Meskipun Anda belum pernah trading Forex sebelumnya, seminar dan webminar dari FBS akan membantu Anda mendapat pengetahuan dasar mengenai trading. Anda juga bisa menggunakan laporan ekonomi dari analis finansial FBS yang bisa membantu Anda mengambil keputusan yang tepat untuk meningkatkan profit Anda.",
    "p16": "Bonus dan Promosi yang bervariasi",
    "p17": "FBS menawarkan kondisi trading yang paling menguntungkan untuk memulai karir trading Anda. Ayo pilih salah satu akun trading di FBS dan juga salah satu atau beberapa bonus dan promosi yang disediakan oleh FBS yang paling menarik untuk Anda supaya bisa meningkatkan profit dari trading Anda!",
    "p18": "FBS menyiapkan layanan nasabah 24 jam 7 hari dalam bahasa ibu yang siap membantu Anda",
    "p19": "Jika Anda memiliki pertanyaan, maka layanan nasabah FBS selalu siap membantu Anda. Layanan nasabah FBS akan menjawab semua pertanyaan mengenai trading Anda melalui live chat atau telepon.",
    "p20": "Transaksi finansial yang nyaman",
    "p21": "FBS memberikan berbagai macam sistem layanan deposit dan penarikan dana secara lokal melalui bank lokal maupun secara interasional melalui sistem pembayaran elektronik."
  },
  "jp": {
    "lang": "ja",
    "site": "https://jpfbs.com",
    "p0": "映画のような人生を夢見ていますか？",
    "p1": "FBS で実現できます!",
    "p2": "では、当社は何を提供するか？",
    "p3": "プラスの収入をより迅速に獲得する方法です!",
    "f1": "名前",
    "f2": "Eメール",
    "f3": "IBアグリーメントの同意書、利用規約を読み、同意しました。",
    "f4": "アグリーメント",
    "f5": "口座を開設",
    "p4": "なぜFBSとの取引が追加収入について話すのにベストなのでしょうか？",
    "p5": "迅速な利益",
    "p6": "取引の最初の月でレーダーの利益は初期投資額を優に超えることが可能です。",
    "p7": "簡単なスタート",
    "p8": "1 ドルの預金からお金を稼ぐことを開始して、すぐに余裕のある暮らしに到達します。",
    "p9": "初心者から専門家に",
    "p10": "外国為替の成功への道をはやり始めたばかりのFBSの高性能スペシャリストチームは、毎日24時間いつでもお手伝いできます。",
    "p11": "夢がかなう",
    "p12": "私たちは定期的にコンテストと有利なプロモーションを開催し、参加して、あなたの夢を一瞬で叶えます！",
    "p13": "なぜFBSか？",
    "p14": "学習の機会",
    "p15": "Forex取引をした経験がなくても、セミナーやウェビナーで素早く基礎を学べます。弊社の大手金融アナリストの専門家によるレビューを使用できます。これは、利益を上げるための正しい決定を下すのに役立ちます。",
    "p16": "プロモーションとボーナス",
    "p17": "取引キャリアを始める最も有利な条件を提供します。アカウントを作成して、金銭的ボーナスを選ぶと、そこから得られる収入はすべてあなたのものです！",
    "p18": "あなたの母国語で毎日24時間サポート対応",
    "p19": "ご質問があれば、弊社のサポートチームはいつでも助ける準備が出来ています。チャットや電話で取引に関するすべてのご質問に迅速にお答えします。",
    "p20": "便利な金融取引",
    "p21": "FBS では、様々な地域や世界各国の決済システム、銀行を介して資金の入出金をサポートしています。"
  },
  "ko": {
    "lang": "ko",
    "site": "https://kofbs.com",
    "p0": "영화 속 같은 삶을 꿈꾸시나요?",
    "p1": "FBS가 그것을 현실로 만들 수 있습니다!",
    "p2": "우리가 제공하는 것은 무엇일까요?",
    "p3": "더 빠르게 추가적인 수익을 벌기 위한 다른 방법!",
    "f1": "당신의 성명",
    "f2": "이메일",
    "f3": "나는 IB 동의서의 약관을 읽었고 그에 동의합니다.",
    "f4": "IB 동의서",
    "f5": "계좌 개설하기",
    "p4": "FBS와 함께 투자하는 것은 추가적인 수입에 대해 이야기할 때 최고의 것중 하나 일까요?",
    "p5": "빠른 수익",
    "p6": "투자의 바로 첫 달 이내로 투자자들의 수익은 투자 자금의 몇 배를 초과할 수 있습니다.",
    "p7": "빠른 시작",
    "p8": "당신은 $1 예금액 부터 돈을 벌기 시작할 수 있고 아주 빨리 당신의 생활 수준을 스스로 향상시킬 수 있도록 할 것입니다.",
    "p9": "초보자부터 전문가까지",
    "p10": "만약 당신이 이제 막 외환에서 성공을 향한 길을 시작하였다면 FBS의 고도의 자격을 갖춘 전문가들이 24/7 당신을 도울 준비가 되었습니다.",
    "p11": "꿈은 이루어진다",
    "p12": "우리는 정규적으로 경연과 이로운 프로모션을 주최하니 참가하여 눈 깜짝할 사이에 당신의 꿈을 얻으세요!",
    "p13": "왜 FBS를 선택하나요?",
    "p14": "배움의 기회",
    "p15": "외환시장에서 이전에 거래해보지 않았더라도 우리의 투자 세미나와 온라인 보고서는 당신이 빠르게 기초 내용들을 이해하는데 도움을 줄 것입니다. 당신은 당신이 당신의 수익을 증가시키기 위한 올바른 결정을 만들 수 있도록 돕는 우리의 주요한 금융 분석가로부터의 전문 리뷰를 마음껏 사용합니다.",
    "p16": "프로모션과 보너스",
    "p17": "우리는 투자에서 당신의 경력을 쌓기 위해서 가장 우리한 조건을 제공합니다. 계좌를 개설하고 선호하는 통화 보너스를 선택하면 거기서 번 모든 수입은 완전히 당신의 것 입니다!",
    "p18": "당신의 모국어로 처리되는 24/7 지원",
    "p19": "만약 당신이 다른 질문 사항이 있다면, 우리의 지원 팀은 항상 당신을 도울 준비가 되어 있습니다. 그들은 지체 없이 모든 당신의 투자 관련 질문에 대해 채팅이나 전화를 통하여 답변할 것입니다.",
    "p20": "편리한 금융 거래",
    "p21": "FBS는 다양한 국제적 및 현지의 지급 방식과 은행을 통한 자금의 예금과 출금을 지원합니다."
  },
  "ms": {
    "lang": "ms",
    "site": "https://fbsmy.com",
    "p0": "Bermimpi hidup seperti dalam filem?",
    "p1": "FBS boleh membuat ia menjadi nyata!",
    "p2": "Apa yang kami tawarkan?",
    "p3": "Cara-cara alternatif untuk menjana pendapatan dengan lebih cepat!",
    "f1": "Nama penuh anda",
    "f2": "E-mail",
    "f3": "Saya telah membaca dan bersetuju dengan terma dan syarat Perjanjian IB",
    "f4": "Perjanjian IB",
    "f5": "Buka akaun dagangan",
    "p4": "Mengapa berdagang di FBS adalah salah satu perkara terbaik bila bercakap tentang pendapatan sampingan?",
    "p5": "Keuntungan pantas",
    "p6": "Dalam bulan pertama dagangan, keuntungan boleh berkali-kali melebihi dana yang dilaburkan.",
    "p7": "Permulaan yang mudah",
    "p8": "Anda boleh mula membuat duit dari deposit $1 dan tidak lama lagi anda akan mampu membawa diri anda ke tahap gaya hidup yang lebih baik.",
    "p9": "Dari permulaan ke profesional",
    "p10": "Jika anda baru bermula menuju kejayaan di pasaran Forex, pasukan pakar-pakar FBS yang berkelayakan tinggi sentiasa bersedia untuk membantu anda 24/7.",
    "p11": "Impian menjadi kenyataan",
    "p12": "Kami kerap mengadakan pertandingan dan promosi, sertai dan menangi impian anda dalam sesaat!",
    "p13": "Kenapa pilih FBS?",
    "p14": "Peluang pembelajaran",
    "p15": "Walaupun anda tidak pernah berdagang di Forex sebelum ini, seminar latihan dan webinar kami akan membantu anda memahami asas-asas dengan cepat. Anda dialu-alukan untuk menggunakan ulasan pakar dari kami penganalisis kewangan terkemuka, yang akan membantu anda membuat keputusan yang tepat untuk meningkatkan keuntungan anda.",
    "p16": "Promosi dan bonus",
    "p17": "Kami menawarkan syarat-syarat yang paling menguntungkan untuk memulakan kerjaya anda dalam perdagangan. Cipta akaun dan pilih pilihan bonus kewangan, dan semua pendapatan yang anda terima darinya adalah benar-benar milik anda!",
    "p18": "Sokongan 24/7 dalam bahasa ibunda anda",
    "p19": "Jika anda mempunyai sebarang soalan, pasukan sokongan kami sentiasa sedia untuk membantu. Mereka akan segera menjawab segala pertanyaan anda tentang perdagangan melalui chat atau melalui telefon.",
    "p20": "Transaksi kewangan yang mudah",
    "p21": "FBS menyokong deposit dan pengeluaran dana melalui pelbagai sistem pembayaran antarabangsa dan tempatan dan bank - bank."
  },
  "pt": {
    "lang": "pt",
    "site": "https://ptfbs.com",
    "p0": "Sonhando viver como nos filmes?",
    "p1": "A FBS pode realizar isto!",
    "p2": "O que oferecemos?",
    "p3": "Formas alternativas de obter grandes lucros mais rápido!",
    "f1": "Seu nome completo",
    "f2": "E-mail",
    "f3": "Eu li e concordei com os termos e condições do Acordo de IB",
    "f4": "Acordo de IB",
    "f5": "Abrir conta comercial",
    "p4": "Por que negociar com a FBS é uma das melhores coisas quando se fala de renda adicional?",
    "p5": "Lucros rápidos",
    "p6": "No primeiro mês de negócios, o lucro do comerciante pode exceder várias vezes os fundos investidos.",
    "p7": "Início fácil",
    "p8": "Você pode começar a ganhar dinheiro a partir de um depósito de $1 e, logo em breve, poderá melhorar seu padrão de vida.",
    "p9": "De iniciante a profissional",
    "p10": "Se você acabou de começar seu caminho para o sucesso em Forex, a equipe da FBS de especialistas altamente qualificados está pronta para lhe ajudar 24/7.",
    "p11": "Sonhos se realizam",
    "p12": "Nós realizamos regularmente concursos e promoções vantajosas. Participe e conquiste seu sonho em um segundo!",
    "p13": "Por que escolher a FBS?",
    "p14": "Oportunidades de aprendizado",
    "p15": "Mesmo se você nunca tiver negociado em Forex antes, nossos seminários de treinamento e webinários irão ajudá-lo a rapidamente compreender o básico. Você é bem-vindo a utilizar as resenhas de nossos analistas financeiros líderes, que irão ajudá-lo a tomar as decisões certas para aumentar seus lucros.",
    "p16": "Promoções e bônus",
    "p17": "Oferecemos as condições mais favoráveis para iniciar sua carreira no mercado. Crie uma conta e escolha um bônus monetário preferido, e todos os rendimentos que você receber dele são totalmente seus!",
    "p18": "Suporte 24/7 em seu idioma nativo",
    "p19": "Se você tiver alguma dúvida, nossa equipe de suporte está sempre pronta para ajudar. Eles prontamente responderão todas suas perguntas sobre o mercado, através de chat ou por telefone.",
    "p20": "Transações financeiras convenientes",
    "p21": "A FBS aceita depósitos e saques via uma variedade de bancos e sistemas de pagamentos locais e internacionais."
  },
  "th": {
    "lang": "th",
    "site": "https://fbs.co.th",
    "p0": "ฝันมีชีวิตเหมือนในภาพยนตร์?",
    "p1": "FBS สามารถทำให้มันจริง!",
    "p2": "เรามีอะไรให้คุณบ้าง?",
    "p3": "อีกวิธีในการหารายได้เสริมอย่างรวดเร็ว!",
    "f1": "ชื่อเต็มของคุณ",
    "f2": "อีเมล์",
    "f3": "ฉันได้อ่านและยอมรับในข้อตกลงและเงื่อนไขของ สัญญาข้อตกลง IB",
    "f4": "สัญญาข้อตกลง IB",
    "f5": "เปิดบัญชี",
    "p4": "ทำไมการเทรดกับ FBS ถึงเป็นหนึ่งในสิ่งที่ดีที่สุดเมื่อพูดถึงรายได้เพิ่มเติม?",
    "p5": "ให้กำไรอย่างรวดเร็ว",
    "p6": "ภายในเดือนแรกของการซื้อขาย กำไรของเทรดเดอร์อาจจะเป็นหลายเท่าของเงินลงทุน",
    "p7": "เริ่มต้นง่าย",
    "p8": "คุณสามารถเริ่มทำเงินจากบัญชีเงินฝากที่ $1 และในไม่ช้าคุณจะสามารถจะใช้เงินยกระดับชีวิตของคุณ",
    "p9": "จากมือสมัครเล่นจนไปถึงมืออาชีพ",
    "p10": "ถ้าคุณเพิ่งเริ่มหนทางสู่ความสำเร็จใน Forex FBS ของทีมผู้เชี่ยวชาญพร้อมจะช่วยเหลือคุณตลอด 24 ชั่วโมงในทุกวัน",
    "p11": "ฝันเป็นจริง",
    "p12": "เราได้จัดการแข่งขันและมีโปรโมชั่นที่เป็นประโยชน์เป็นประจำ เข้าร่วม ชนะความฝันของคุณในไม่ช้า!",
    "p13": "ทำไมต้องเลือก FBS?",
    "p14": "การเรียนรู้เพื่อโอกาส",
    "p15": "แม้ว่าคุณไม่ได้ซื้อขายในตลาด Forex มาก่อน แต่การสัมมนาฝึกอบรมของเราจะช่วยคุณได้อย่างรวดเร็วในการเข้าใจพื้นฐานเรายินดีที่จะใช้ความคิดเห็นจากผู้เชี่ยวชาญจากเรานักวิเคราะห์ทางการเงินชั้นนำ ซึ่งจะช่วยให้คุณตัดสินใจที่เหมาะสมในการเพิ่มกำไรของคุณ",
    "p16": "โปรโมชั่นและโบนัส",
    "p17": "เราเสนอเงื่อนไขดีที่สุดในการเริ่มงานของคุณกับการซื้อขายสร้างบัญชีผู้ใช้ และเลือกโบนัสเงินที่ต้องการ และรายได้ทั้งหมดที่คุณได้รับจากมันจะเป็นของคุณทั้งหมด",
    "p18": "เราซัพพอร์ตคุณด้วยภาษาของคุณตลอด 24 ชั่วโมงในทุกวัน",
    "p19": "หากคุณมีคำถามใด ๆ ทีมซัพพอร์ตของเราพร้อมอยู่เสมอที่จะช่วยคุณพวกเขาจะตอบทุกคำถามเกี่ยวกับการซื้อขายโดยทันที ผ่านการแชทหรือทางโทรศัพท์",
    "p20": "การทำธุรกรรมการเงินที่สะดวก",
    "p21": "FBS รองรับการฝากและถอนเงิน ผ่านความหลากหลายของระบบการชำระเงินระหว่างประเทศ ในประเทศและธนาคาร"
  },
  "vi": {
    "lang": "vi",
    "site": "https://vnfbs.com",
    "p0": "Mơ về cuộc sống như trên phim?",
    "p1": "FBS có thể làm điều đó xảy ra!",
    "p2": "Chúng tôi có ưu đãi gì cho bạn?",
    "p3": "Nhiều phương thức khác nhau để kiếm thêm thu nhập nhanh hơn!",
    "f1": "Họ và tên",
    "f2": "E-mail",
    "f3": "Tôi đã đọc và đồng ý với các điều khoản và điều kiện của Thỏa Thuận IB",
    "f4": "Thỏa Thuận IB",
    "f5": "Mở 1 tài khoản",
    "p4": "Vì sao giao dịch cùng FBS là một trong những cách tốt nhất để kiếm thêm thu nhập?",
    "p5": "Kiếm lợi nhuận nhanh",
    "p6": "Trong tháng giao dịch đầu tiên, lợi nhuận của trader có thể vượt lên gấp nhiều lần quỹ đầu tư ban đầu.",
    "p7": "Bắt đầu dễ dàng",
    "p8": "Bạn có thể bắt đầu kiếm tiền từ $1 ký quỹ, và bạn sẽ nhanh chóng có đủ khả năng tài chính để nâng cấp cuộc sống của mình.",
    "p9": "Từ người mới bắt đầu đến người chuyên nghiệp",
    "p10": "Nếu bạn chỉ mới bắt đầu con đường đến với thành công bằng Forex, FBS có đội ngũ chuyên gia chất lượng cao sẵn sàng giúp bạn 24/7.",
    "p11": "Giấc mơ thành hiện thực",
    "p12": "Chúng tôi thường xuyên tổ chức các cuộc thi và chương trình khuyến mãi hấp dẫn, hãy tham gia và giành chiến thắng chỉ trong tích tắc!",
    "p13": "Vì sao nên chọn FBS?",
    "p14": "Cơ hội học hỏi",
    "p15": "Ngay cả khi bạn chưa bao giờ giao dịch ngoại hối trước đây, các hội thảo đào tạo offline và online của chúng tôi sẽ giúp bạn nhanh chóng nắm các kiến thức căn bản. Chúng tôi hoan nghênh bạn học hỏi những đánh giá chuyên môn từ các nhà phân tích tài chính hàng đầu của chúng tôi, chúng sẽ giúp bạn quyết định đúng đắn hơn để tăng lợi nhuận cho mình.",
    "p16": "Các chương trình khuyến mãi và thưởng",
    "p17": "Chúng tôi cung cấp các điều kiện thuận lợi nhất để bạn bắt đầu sự nghiệp giao dịch của mình. Tạo tài khoản và chọn khoản tiền thưởng mong muốn, tất cả thu nhập nhận được từ khoản thưởng đó hoàn toàn là của bạn!",
    "p18": "Hỗ trợ bằng ngôn ngữ của bạn 24/7",
    "p19": "Nếu bạn có bất kỳ thắc mắc nào, đội ngũ hỗ trợ của chúng tôi luôn sẵn sàng giải đáp. Chúng tôi sẽ nhanh chóng giải đáp mọi thắc mắc của bạn về giao dịch thông qua chat hoặc điện thoại.",
    "p20": "Giao dịch tài chính thuận tiện",
    "p21": "FBS hỗ trợ ký quỹ và rút quỹ thông qua các hệ thống thanh toán, ngân hàng quốc tế và địa phương."
  },
  "tr": {
    "lang": "tr",
    "site": "https://trfbs.com",
    "p0": "Filmlerdeki gibi bir hayat mı hayal ediyorsun?",
    "p1": "FBS bunu gerçekleştirebilir!",
    "p2": "Ne sunuyoruz?",
    "p3": "Daha hızlı gelir ekstra kazanmanın alternatif yolları!",
    "f1": "Your full name",
    "f2": "E-mail",
    "f3": "I accept Customer Agreement conditions and accept all risks inherent with trading operations on the world financial markets.",
    "f4": "Agreement",
    "f5": "Open account",
    "p4": "Ekstra gelir konusunda söylenen en iyi şeylerden biri neden FBS ile yatırım yapmak?",
    "p5": "Hızlı kar",
    "p6": "Yatırımın ilk ayında yatırımcıların karları, yatırdıkları fonların defalarca katına ulaşabilir.",
    "p7": "Kolay bir başlangıç",
    "p8": "Para kazanmaya 1$ yatırarak başlayabilirsiniz ve kısa zamanda yaşam tarzınızı üst seviyeye çıkarmayı karşılayabilirsiniz.",
    "p9": "Acemiden profesyonele",
    "p10": "Eğer Forex'te başarılı olma yoluna yeni başladıysanız, FBS'nin nitelikli uzman kadrosu size 7/24 yardım etmeye hazır.",
    "p11": "Hayaller gerçek oluyor",
    "p12": "Düzenli olarak çekilişler ve avantajlı promosyonlar düzenliyoruz, katıl ve hayalini anında kazan!",
    "p13": "Neden FBS'yi seçmelisiniz?",
    "p14": "Öğrenme fırsatları",
    "p15": "Daha önce hiç Forex'te işlem yapmamış olsanız bile, eğitim seminerlerimiz ve web seminerleri temel bilgileri çabucak anlamanıza yardımcı olacaktır. Kârınızı artırmak için doğru kararları vermenize yardımcı olacak önde gelen finansal analistlerimizden gelen uzman görüşleri kullanabilirsiniz.",
    "p16": "Promosyonlar ve bonuslar",
    "p17": "Yatırımda kariyerinize başlamanız için en uygun koşulları sunuyoruz. Bir hesap oluşturun ve tercih edilen bir parasal bonus seçin ve bundan elde ettiğiniz tüm gelir tamamen sizindir!",
    "p18": "Ana dilinizdeki müşteri desteği 24/7",
    "p19": "Herhangi bir sorunuz varsa, destek ekibimiz her zaman yardımcı olmaya hazırdır. Sohbet yoluyla ya da telefonla yatırımla ilgili tüm sorularınızı derhal cevaplayacaklar.",
    "p20": "Uygun finansal işlemler",
    "p21": "FBS, çeşitli uluslararası ve yerel ödeme sistemleri ve bankalar aracılığıyla para yatırma ve çekmeyi desteklemektedir."
  },
  "my": {
    "lang": "my",
    "site": "https://fbs.com.mm",
    "p0": "ရုပ္ရွင္ေတြထဲကလိုဘ၀မ်ိဳးကို စိတ္ကူးယဥ္ျပီးလိုခ်င္ေနပါသလား?",
    "p1": "ထိုဘ၀မ်ိဳးရေအာင္ FBSကဖန္တီးေပးနိုင္ပါတယ္!",
    "p2": "က ြြၽႏု ္​ပ္​တို ့့ ဖိတ္​​ေခၚ ကမ္​းလွမ္​းခ ််င္​တာက ဘာမ ် ားပါလဲ?",
    "p3": "အပို၀င္​​ေငြမ ်် ားမ ်် ား ႏွင့္ျမန္ျ​မန္​ ႐ွာ​ေဖြရ႐ွိႏိုင္​မည့္နည္းလမ္​းမ ်် ား႐ွိပါသည္​!",
    "f1": "နာမည္အျပည့္အစုံ",
    "f2": "အီးေမး",
    "f3": "IB သေဘာတူညီမႈ ၏စည္းမ်ဥ္းႏွင့္ ကန္႔သတ္ခ်က္မ်ားအား ကၽြႏ္ုပ္ဖတ္ရႈၿပီးသေဘာတူညီပါသည္။",
    "f4": "IB သေဘာတူညီမႈ",
    "f5": "အေကာင့္ဖြင့္ပါ",
    "p4": "အျမတ္မ်ားမ်ားနဲ့ အပို၀င္ေငြရွာနိုင္မယ့္ အလုပ္အေၾကာင္းေျပာတဲ ့အခါ FBSမွာအေရာင္းအ၀ယ္လုပ္တာသည္သာ အေကာင္းဆံုးပဲလို့ ဘာေၾကာင့္ေျပာၾကတာလဲ?",
    "p5": "မန္​ျမန္​ရမယ့္​ အျမတ္​​ေငြမ ်် ား",
    "p6": "အေရာင္းအ၀ယ္လုပ္ျပီး ပထမလအတြင္းမွာပဲ ရတဲ ့အျမတ္ေငြပမာဏဟာ ဘဏ္မွာေငြစုလို ့ရတဲ့အတိုးထက္ မ ် ားစြာသာလြန္မွာပါ, ဘဏ္ကရတဲ ့အတိုးဟာ ပံုေသနွ ုန္းျဖစ္ျပီး ရတဲ ့အတိုးဟာလည္းအလြန္နည္းပါးပါတယ္ ထို ့ျပင္ ေငြေဖာင္းပြမွ ုေၾကာင့္ မိမိေငြ တန္ဖိုးေလ ် ာ့နည္းသြားမွာကိုလည္း စိုးရိမ္ရပါေသးတယ္.",
    "p7": "စတင္လုပ္ေဆာင္ရန္လြယ္ကူျခင္း",
    "p8": "စတင္ရင္းနွီးေငြ တစ္ေဒၚလာတည္းနဲ့ စတင္ေရာင္း၀ယ္နိုင္ျပီး သိပ္မၾကာခင္မွာပဲ သင့္ရဲ့ဘ၀အဆင့္အတန္းကိုျမွင့္တင္နိင္မယ့္အခြင့္အေရးပါ.",
    "p9": "ယခုမွစတင္ေလ့လာေနသူအဆင့္ကေန ကၽြမ္းက်င္သူ ပေရာ္ဖက္ရွင္နယ္အဆင့္သို့",
    "p10": "အကယ္၍သင္ဟာ အခုမွ forexအေရာင္းအ၀ယ္စလုပ္ကိုင္မယ့္သူဆိုရင္လဲ သင့္ကို၂၄/၇ အခ ်ိန္ျပည့္ အကူအညီေပးရန္ FBSကအဆင့္သင့္ရွိေနပါသည္.",
    "p11": "စိတ္ကူးအိမ္​မက္​​ေတြအမွန္တကယ္​ျဖစ္​လာပါၿပီ",
    "p12": "ျပိင္ပြဲမ်ားနွင့္ အက်ိုးရွိေစမယ့္ပရိုမိုးရွင္းအစီအစဥ္မ်ားကို ပံုမွန္က်င္းေပးေနပါသည္. ပါ၀င္ဆင္ႏႊဲျပီးသင့္ရဲ့အိပ္မက္ေတြကို အခ်ိန္အနည္းငယ္အတြင္း အေကာင္အထည္ေပၚလာေအာင္ လုပ္ေဆာင္လိုက္ပါ!",
    "p13": "FBSကို ဘာ​ေၾကာင္​ ့့​ေရြးခ ််ယ္​တာလဲ?",
    "p14": "သင္​ယူ​ေလ့လာႏိုင္​မယ္​ ့့ အခြင္​့အလမ္​းမ ်် ား",
    "p15": "သင္ယခင္က တစ္ၾကိမ္တစ္ခါမ ွ် Forexမွာ အေရာင္းအ၀ယ္မလုပ္ဖူးဘူးဆိုလ ွ်င္ေတာင္မွ, က ၽြနု္တို ့၏ ေလ့က ်င့္ေရးဆိုင္ရာ သင္တန္းေတြ ့ဆံုပြဲေတြ နွင့္ အင္တာနက္ေပၚတြင္သင္ၾကားေပးေသာ ေတြ့ဆံုေဆြးေႏြးပြဲေတြက သင့္ကိုအေျခခံအားျဖင့္ သေဘာေပါက္နားလည္ေအာင္ ကူညီေပးနိုင္ပါလိမ့္မယ္. သင့္ရဲ ့အျမတ္ေငြတိုးပြားေစမယ့္ အေရာင္းအ၀ယ္ဆံုးျဖတ္ခ ်က္ေတြ ခ ်မွတ္ရာမွာ အေထာက္အကူျဖစ္ေစဖို ့အတြက္ FBSရဲ ့ ေငြေၾကးဆိုင္ရာ သံုးသပ္ခ ်က္မ ် ားမွ က ၽြမ္းက ်င္ပညာရွင္မ ် ားရဲ ့သံုးသပ္ခ ်က္ေတြကိုလည္း ၀န္ေဆာင္မွ ုေပးလ ွ်က္ရွိပါတယ္.",
    "p16": "ပ႐ိုမိုး႐ွင္​း ႏွင့္ အပိုဆုမ ်် ား",
    "p17": "သင္ အေရာင္းအ၀ယ္စတင္လုပ္ေဆာင္ရာမွာ အေကာင္းဆံုးအေျခအေန ရလဒ္ေတြကို ရရွိေအာင္ ကူညီေပးခ ်င္ပါတယ္. အေကာင့္တစ္ခုဖြင့္ျပီး နွစ္သက္ရာ ေငြေၾကးအပိုဆုအစီအစဥ္ကိုေရြးခ ်ယ္လိုက္တာနဲ ့ ထိုအစီအစဥ္က ရရွိသမ ွ် ၀င္ေငြအားလံုးဟာ သင့္၀င္ေငြမ ် ားပင္ျဖစ္ပါတယ္!",
    "p18": "သင္​့ရဲ ့့မိခင္​ဘာသာစကားနဲ ့့ ၂၄/၇ အခ ်် ိိန္​ျပည္​့ အကူအညီ​ေပး ဝန္​​ေဆာင္​မွ ုု",
    "p19": "သင့္မွာ ဘယ္လိုျပသနာ ဘယ္လိုေမးခြန္းမ ် ိဳးပဲရွိရွိ အကူအညီေပးေရးအဖြဲ ့က ကူညီေျဖရွင္းေပးဖို ့ အသင့္ပါပဲ. အ​ေရာင္​းအဝယ္​နဲ ့့ပက္​သက္​တဲ့​ေမးခြန္​းအားလံုးကို အကူအညီ​ေပး​ေရးအဖြဲ ့့မွ ဖုန္​း(သို ့့) စာျဖင္​့ အခ ်် ိိန္​တိုအတြင္​း ျပန္​လည္​​ေျဖၾကား​ေပးသြားပါမည္​.",
    "p20": "ေငြေၾကးအသြင္း၊အထုတ္နွင့္ လြဲေျပာင္းရာမွာ အဆင္ေျပလြယ္ကူျခင္း",
    "p21": "FBSတြင္​ ျပည္​တြင္​း​ဘဏ္​ႏွင္​ ့့​ျပည္​တြင္​း​ေငြ​ေပး​ေခ ်် စနစ္​မ ်် ားသာမက ႏိုင္​ငံတကာ​ေငြ​ေပး​ေခ ်် စနစ္​မ ််ားျဖင္​့ပါ​ေငြသြင္​း/ထုတ္​ လုပ္​ႏိုင္​​ပါသည္​."
  }
}