<?xml version="1.0" encoding="utf-8"?>
<!-- Generated by IcoMoon.io -->
<!DOCTYPE svg PUBLIC "-//W3C//DTD SVG 1.1//EN" "http://www.w3.org/Graphics/SVG/1.1/DTD/svg11.dtd">
<svg version="1.1" xmlns="http://www.w3.org/2000/svg" xmlns:xlink="http://www.w3.org/1999/xlink" width="819" height="1024" viewBox="0 0 819 1024">
<g id="icomoon-ignore">
</g>
<path fill="#000" d="M40.95 756.46c-21.84 0-40.95 19.11-40.95 40.95v5.46c0 21.84 19.11 40.95 40.95 40.95h737.101c21.84 0 40.95-19.11 40.95-40.95v-5.46c0-21.84-19.11-40.95-40.95-40.95h-737.101zM40.95 783.76h737.101c8.19 0 13.65 5.46 13.65 13.65v5.46c0 8.19-5.46 13.65-13.65 13.65h-737.101c-8.19 0-13.65-5.46-13.65-13.65v-5.46c0-8.19 5.46-13.65 13.65-13.65zM289.38 559.9c-32.76 0-57.331 24.57-73.71 51.87-5.46 8.19-8.19 13.65-10.92 21.84-8.19 16.38 19.11 27.3 24.57 10.92 2.73-8.19 5.46-13.65 8.19-19.11 13.65-24.57 30.030-38.22 51.87-38.22 19.11 0 35.49 13.65 51.87 38.22 2.73 5.46 5.46 13.65 8.19 19.11 5.46 16.38 32.76 8.19 24.57-10.92-2.73-8.19-8.19-16.38-10.92-21.84-16.38-30.030-35.49-51.87-73.71-51.87zM529.62 559.9c-32.76 0-57.331 24.57-73.71 51.87-5.46 8.19-8.19 13.65-10.92 21.84-8.19 16.38 19.11 27.3 24.57 10.92 2.73-8.19 5.46-13.65 8.19-19.11 13.65-24.57 30.030-38.22 51.87-38.22 19.11 0 35.49 13.65 51.87 38.22 2.73 5.46 5.46 13.65 8.19 19.11 5.46 16.38 32.76 8.19 24.57-10.92-2.73-8.19-8.19-16.38-10.92-21.84-16.38-30.030-40.95-51.87-73.71-51.87z"></path>
<path fill="#000" d="M68.25 819.25c-8.19 0-13.65 5.46-13.65 13.65v2.73s2.73 27.3 8.19 62.79c5.46 35.49 16.38 73.71 30.030 101.010 2.73 2.73 5.46 8.19 8.19 13.65s10.92 10.92 21.84 10.92h87.36c10.92 0 16.38-5.46 21.84-10.92 2.73-5.46 5.46-10.92 8.19-13.65 10.92-16.38 19.11-38.22 24.57-57.331 5.46-13.65 5.46-19.11 8.19-24.57h32.76c2.73 5.46 2.73 10.92 8.19 24.57 8.19 19.11 16.38 40.95 27.3 57.331 5.46 8.19 10.92 16.38 24.57 21.84h98.28c13.65-5.46 19.11-16.38 24.57-21.84 10.92-16.38 19.11-38.22 24.57-57.331 5.46-13.65 5.46-19.11 8.19-24.57h32.76c2.73 5.46 2.73 10.92 8.19 24.57 8.19 19.11 16.38 40.95 27.3 57.331 2.73 2.73 2.73 8.19 8.19 10.92s10.92 10.92 21.84 10.92h87.36c10.92 0 16.38-5.46 21.84-10.92s5.46-10.92 8.19-13.65c19.11-38.22 24.57-79.17 30.030-114.66 0-8.19-2.73-13.65-10.92-16.38-8.19 0-13.65 2.73-16.38 10.92-5.46 35.49-10.92 73.71-27.3 106.47-2.73 2.73-2.73 8.19-5.46 8.19-2.73 2.73-2.73 0 0 0h-87.36c2.73 0 2.73 0 0 0s-2.73-5.46-8.19-10.92c-8.19-10.92-16.38-32.76-24.57-51.87s-10.92-32.76-10.92-32.76c-2.73-5.46-8.19-8.19-13.65-8.19h-51.87c-5.46 0-10.92 5.46-13.65 10.92 0 0-2.73 16.38-10.92 32.76s-13.65 40.95-21.84 51.87c-2.73 5.46-8.19 10.92-10.92 10.92h-79.17l-10.92-10.92c-8.19-10.92-16.38-32.76-24.57-51.87s-10.92-32.76-10.92-32.76c-2.73-5.46-8.19-8.19-13.65-8.19h-51.87c-5.46 0-10.92 5.46-13.65 10.92 0 0-2.73 16.38-10.92 32.76s-13.65 40.95-21.84 51.87c-2.73 5.46-5.46 8.19-5.46 10.92-2.73 2.73 0 0 0 0h-87.36c2.73 0 2.73 0 0 0s-2.73-5.46-5.46-10.92c-10.92-21.84-21.84-60.060-27.3-92.82s-8.19-60.060-8.19-60.060c0-8.19-5.46-13.65-13.65-13.65zM649.741 614.5c-32.76 0-57.331 24.57-73.71 51.87-16.38 30.030-27.3 65.52-27.3 95.55 0 8.19 5.46 13.65 13.65 13.65s13.65-5.46 13.65-13.65c2.73-27.3 10.92-60.060 24.57-84.63s30.030-38.22 51.87-38.22 35.49 13.65 51.87 38.22c13.65 24.57 21.84 57.331 24.57 84.63 0 8.19 5.46 13.65 13.65 13.65s13.65-5.46 13.65-13.65v-2.73c-2.73-32.76-10.92-68.25-27.3-95.55s-49.14-49.14-79.17-49.14zM409.5 614.5c-32.76 0-57.331 24.57-73.71 51.87-16.38 30.030-27.3 65.52-27.3 95.55 0 8.19 5.46 13.65 13.65 13.65s13.65-5.46 13.65-13.65c2.73-27.3 10.92-60.060 24.57-84.63s30.030-38.22 51.87-38.22c19.11 0 35.49 13.65 51.87 38.22 13.65 24.57 21.84 57.331 24.57 84.63 0 8.19 5.46 13.65 13.65 13.65s13.65-5.46 13.65-13.65v-2.73c-2.73-32.76-10.92-68.25-27.3-95.55s-46.41-49.14-79.17-49.14zM171.99 614.5c-16.38 0-30.030 5.46-43.68 16.38l-8.19 8.19c-5.46 5.46-5.46 13.65 0 19.11s13.65 5.46 19.11 0c2.73-2.73 5.46-2.73 5.46-5.46 8.19-5.46 16.38-10.92 27.3-10.92 19.11 0 35.49 13.65 51.87 38.22 13.65 24.57 21.84 57.331 24.57 84.63 0 8.19 5.46 13.65 13.65 13.65s13.65-5.46 13.65-13.65v-2.73c-2.73-32.76-10.92-68.25-27.3-95.55s-46.41-51.87-76.44-51.87zM87.36 710.050c-5.46 0-10.92 5.46-13.65 10.92-5.46 16.38-5.46 30.030-8.19 43.68 0 8.19 5.46 13.65 10.92 16.38s13.65-5.46 16.38-10.92c2.73-13.65 2.73-27.3 5.46-38.22 2.73-8.19-2.73-13.65-8.19-16.38 0-5.46 0-5.46-2.73-5.46zM117.39 682.75c0 8.19-5.46 13.65-13.65 13.65s-13.65-5.46-13.65-13.65 5.46-13.65 13.65-13.65 13.65 5.46 13.65 13.65z"></path>
</svg>
