{
  "en": {
    "lang": "en",
    "site": "https://fbs.com",
    "p0": "Become the Gadgetman!",
    "p1": "Trade with FBS and buy all the gadgets you want!",
    "p2": "What do we offer?",
    "p3": "Additional income, that will help to level up your quality of life!",
    "f1": "Your full name",
    "f2": "E-mail",
    "f3": "I accept Customer Agreement conditions and accept all risks inherent with trading operations on the world financial markets.",
    "f4": "Agreement",
    "f5": "Open account",
    "p4": "Why trading with FBS is one of the best things talking about income growth?",
    "p5": "Additional income",
    "p6": "It is one of the best ways to get an extra profit for buying latest top gadgets you were dreaming about.",
    "p7": "You are the boss",
    "p8": "Only you can decide how and when you trade. And we are ready to help 24/7.",
    "p9": "Low entry barriers",
    "p10": "Trading is affordable. You can enter the market with literally any amount of money. There is no need to invest heavily in order to succeed.",
    "p11": "Profit withdrawal is easy as a pie",
    "p12": "Trading is affordable. You can enter the market with literally any amount of money. There is no need to invest heavily in order to succeed.",
    "p13": "Why choose FBS?",
    "p14": "Learning opportunities",
    "p15": "Even if you've never traded on Forex before, our training seminars and webinars will help you quickly understand the basics. You are welcome to use expert reviews from our leading financial analysts, which will help you make the right decisions for increasing your profit.",
    "p16": "Promotions and bonuses",
    "p17": "We offer the most favorable conditions to start your career in trading. Create an account and choose a preferred monetary bonus, and all the income you get from it is completely yours!",
    "p18": "24/7 support in your native language",
    "p19": "If you have any questions, our support team is always ready to help. They will promptly answer all your questions about trading through chat or by phone.",
    "p20": "Convenient financial transactions",
    "p21": "FBS supports deposit and withdrawal of funds via a variety of international and local payment systems and banks."
  },
  "ar": {
    "lang": "ar",
    "site": "https://fbs.ae",
    "p0": "هل تعلم كيف تكسب المال؟",
    "p1": "حان الوقت لتوظف أموالك!",
    "p2": "البنوك جيدة, ولكن…",
    "p3": "لا تضع كل البيض في سلة واحدة!",
    "p4": "ما الذي نعرضه؟",
    "p5": "طرق بديلة لتحقيق ربح أكبر بسرعة أكبر!",
    "f1": "الاسم الكامل",
    "f2": "البريد الإلكتروني",
    "f3": "لقد قرأت ووافقت على أحكام وشروطاتفاقية الشراكة",
    "f4": "اتفاقية الشراكة",
    "f5": "افتح حساب",
    "p6": "لماذا يعتبر تداول الفوركس أكثر ربحية من المال الذي تكسبه من الخدمات المصرفية؟",
    "p7": "الأرباح السريعة",
    "p8": "خلال الأشهر الأولى للتداول, يمكن أن يتخطى ربح المتداول مبلغ الاستثمار بعدة أضعاف, وليس مجرد فائدة ثابتة تفقد قيمتها بالتضخم.",
    "p9": "عمليات السحب السريعة",
    "p10": "يملك المتداول حرية إدارة أمواله وفقا للعوامل الاقتصادية والسياسية. بينما يعتبر أصخاب الحسابات المصرفية محرومين من هذه الفرصة.",
    "p11": "تنمو الأرباح كل شهر أكثر من سابقه",
    "p12": "تكبر الأموال في هذه الحلقة ككرة الثلج. بينما تبقى أموالك في البنك دون تغيير يذكر, مع نسبة فائدة ثابتة طوال الوقت.",
    "p13": "الربح من التداول أكبر بكثير من الربح عن طريق الخدمات المصرفية",
    "p14": "أموال المتداول تتحرك وتحقق له الأرباح, ولا تراوح مكانها أو حتى تتراجع. بينما الأموال في الحسابات المصرفية تستخدمها البنوك لتحقق الأرباح لها وليس لك.",
    "p15": "لماذا عليك اختيار FBS؟",
    "p16": "فرص التعلم",
    "p17": "حتى لو لم تتداول في الفوركس مطلقا من قبل, ستساعدك سيميناراتنا التعليمية والإلكترونية على فهم الأساسيات بأسرع وقت ممكن. يسرنا أن تستفيد من نصائح وخبرات محللينا المحترفين, والتي ستساعدك على اتخاذ القرارات الصحيحة لزيادة أرباحك.",
    "p18": "العروض والبونصات",
    "p19": "نقدم أفضل الظروف لتبدأ رحلتك في عالم التداول. افتح حسابا واختر البونص الأنسب لك, وما ستحصل عليه من مال عبر هذا البونص, سيكون لك بالكامل!",
    "p20": "خدمة عملاء 24/7 بلغتك الأم",
    "p21": "إذا كانت لديك أية أسئلة, خدمة عملائنا حاضرون دائما لمساعدتك. سيجيبون على الفور عن كل أسئلتك بخصوص التداول عبر التشات أو الهاتف.",
    "p22": "صفقات مالية مريحة",
    "p23": "تدعم FBS إيداع وسحب الأموال عبر مجموعة متنوعة من أنظمة الدفع والبنوك العالمية."
  },
  "cn": {
    "lang": "cn",
    "site": "https://fbs.cn",
    "p0": "您知道如何赚钱吗？",
    "p1": "是时候为自己赚钱了！",
    "p2": "银行是不错，但是...",
    "p3": "不要把鸡蛋放在同一个篮子里！",
    "p4": "我们可以提供什么？",
    "p5": "快速获利的最佳方式！",
    "f1": "您的姓名",
    "f2": "电子邮件",
    "f3": "我已阅读并同意IB协议的条款及细则",
    "f4": "IB协议",
    "f5": "开帐户",
    "p6": "为什么外汇交易的利润远远大于银行服务？",
    "p7": "快速盈利",
    "p8": "在交易的第一个月，交易者的盈利可以超过投资资金多倍，不仅仅给您带来固有的盈利，还会更多。",
    "p9": "快速提款",
    "p10": "交易者可以自由管理他们的资金，考虑到经济和政治因素。而存款至银行账户的人们这个权利却被剥夺。",
    "p11": "利润每月都在增长",
    "p12": "流通中的货币量像雪球一样成倍增长。而您的银行金额则保持不变，一直依靠相同的利率。",
    "p13": "交易的利润远远超过银行利息。",
    "p14": "交易者的资金不停运作并赚取利润，而不是一直保存在一个地方。银行从您的存款中获得盈利，而不是您本人。",
    "p15": "为什么选择FBS？",
    "p16": "更多的学习机会",
    "p17": "即使您之前从未交易过外汇，我们的培训讲座和线上讲座将帮助您快速了解基本交易常识。欢迎您对我们的专家和金融分析师做出点评，他们将帮助您做出正确的决定并增加您的盈利。",
    "p18": "优惠活动和奖金",
    "p19": "我们在您即将开始的外汇职业生涯中，提供最有利的条件。创建一个交易账户，并选择交易奖金，所获的全部收入都是您的！",
    "p20": "7天24小时的汉语客服支持",
    "p21": "如果您有任何问题，我们的团队非常乐意为您解答。他们还会快速通过聊天或者电话解决您在交易中遇到的难题。",
    "p22": "方便快捷的金融交易",
    "p23": "FBS 公司支持国际以及当地支付系统为客户提供存款和提款服务。"
  },
  "id": {
    "lang": "id",
    "site": "https://fbs.id",
    "p0": "Apakah Anda tahu cara mendapatkan uang?",
    "p1": "Saatnya membuat uang bekerja untuk Anda!",
    "p2": "Deposito di Bank memang baik, namum",
    "p3": "Mungkin ada pilihan investasi yang lebih baik lagi.",
    "p4": "Apa yang bisa kami tawarkan?",
    "p5": "Cara alternatif untuk mendapat keuntungan yang lebih besar dengan cepat!",
    "f1": "Nama lengkap",
    "f2": "E-mail",
    "f3": "Saya menyetujui semua syarat dan ketentuan dari Perjanjian Mitra FBS",
    "f4": "Perjanjian Mitra FBS",
    "f5": "Buka akun",
    "p6": "Mengapa trading Forex lebih menguntungkan dari deposito atau tabungan di bank?",
    "p7": "Profit yang cepat",
    "p8": "Dalam sebulan pertama trading, biasanya profit dari trading bisa berkali - kali lipat dari deposit yang dilakukan oleh Anda. Artinya Anda bisa mendapatkan keuntungan yang lebih besar dari bunga tanpa harus mengkhawatirkan nilai inflasi.",
    "p9": "Waktu pencairan dana yang cepat",
    "p10": "Trader bebas mengatur investasi mereka sesuai dengan berita ekonomi dari pasar, atau berita politik yang mempengaruhi pasar. Dimana investasi di Bank tidak bisa mendapat kesempatan tersebut.",
    "p11": "Profit Anda akan bertambah setiap bulannya",
    "p12": "Jumlah profit yang Anda dapatkan dari trading semakin lama akan semakin besar seperti bola salju. Sementara jumlah keuntunganyang Anda dapatkan dari layanan Bank akan sama sesuai dengan nilai suku bunga dan dipengaruhi oleh nilai inflasi setiap saat.",
    "p13": "Profit dari trading lebih besar dari suku bunga Bank",
    "p14": "Uang yang diinvestasikan trader akan berputar dan menghasilkan profit, dan biasanya tidak diam di satu instrumen bila mengalami kerugian. Sementara invesatsi Anda di Bank akan diputar oleh Bank untuk mendapatkan keuntungan yang besar untuk mereka, dan bukan menambah keuntungan Anda.",
    "p15": "Mengapa wajib memilih FBS?",
    "p16": "FBS menawarkan kesempatan untuk belajar trading",
    "p17": "Meskipun Anda belum pernah trading Forex sebelumnya, seminar dan webminar dari FBS akan membantu Anda mendapat pengetahuan dasar mengenai trading. Anda juga bisa menggunakan laporan ekonomi dari analis finansial FBS yang bisa membantu Anda mengambil keputusan yang tepat untuk meningkatkan profit Anda.",
    "p18": "Bonus dan Promosi yang bervariasi",
    "p19": "FBS menawarkan kondisi trading yang paling menguntungkan untuk memulai karir trading Anda. Ayo pilih salah satu akun trading di FBS dan juga salah satu atau beberapa bonus dan promosi yang disediakan oleh FBS yang paling menarik untuk Anda supaya bisa meningkatkan profit dari trading Anda!",
    "p20": "FBS menyiapkan layanan nasabah 24 jam 7 hari dalam bahasa ibu yang siap membantu Anda",
    "p21": "Jika Anda memiliki pertanyaan, maka layanan nasabah FBS selalu siap membantu Anda. Layanan nasabah FBS akan menjawab semua pertanyaan mengenai trading Anda melalui live chat atau telepon.",
    "p22": "Transaksi finansial yang nyaman",
    "p23": "FBS memberikan berbagai macam sistem layanan deposit dan penarikan dana secara lokal melalui bank lokal maupun secara interasional melalui sistem pembayaran elektronik."
  },
  "ja": {
    "lang": "ja",
    "site": "https://jpfbs.com",
    "p0": "お金を稼ぐ方法を知っていますか?",
    "p1": "お金にあなたのために働かせる時が来ました！",
    "p2": "銀行も良いですが...",
    "p3": "一箇所にすべてを任せていてはいけません！",
    "p4": "では、当社は何を提供するか？",
    "p5": "それは、大きな利益をより迅速に取得する方法です！",
    "f1": "名前",
    "f2": "Eメール",
    "f3": "IBアグリーメントの同意書、利用規約を読み、同意しました。",
    "f4": "アグリーメント",
    "f5": "口座を開設",
    "p6": "なぜ、外国為替市場取引は銀行サービスより収益性の高いのか？",
    "p7": "迅速な利益",
    "p8": "トレーディングの最初の1ヶ月以内に、トレーダーの利益は投資されたファンドを何倍も超えることができ、インフレによって無効にされる固定金利のみをもたらすことはありません。",
    "p9": "迅速な引き出し",
    "p10": "トレーダーは、経済的および政治的要因を考慮して、資金を自由に管理することができます。 一方、銀行口座の所有者はそのような機会を奪われています。",
    "p11": "月を追うごとに利益が増えます",
    "p12": "流通量が格段に増えます。 そしてあなたの銀行口座の金額は変わらず、常に同じ金利を保ちます。",
    "p13": "取引からの利益は、銀行からよりもはるかに高いです",
    "p14": "トレーダーのお金は動いていて、利益を上げています。一ヶ所にとどまったり、減ったりすることはありません。 の銀行口座にあるお金は、利益を得るために銀行によって使われます。",
    "p15": "なぜFBSか？",
    "p16": "学習の機会",
    "p17": "Forex取引をした経験がなくても、セミナーやウェビナーで素早く基礎を学べます。弊社の大手金融アナリストの専門家によるレビューを使用できます。これは、利益を上げるための正しい決定を下すのに役立ちます。",
    "p18": "プロモーションとボーナス",
    "p19": "取引キャリアを始める最も有利な条件を提供します。アカウントを作成して、金銭的ボーナスを選ぶと、そこから得られる収入はすべてあなたのものです！",
    "p20": "あなたの母国語で毎日24時間サポート対応",
    "p21": "ご質問があれば、弊社のサポートチームはいつでも助ける準備が出来ています。チャットや電話で取引に関するすべてのご質問に迅速にお答えします。",
    "p22": "便利な金融取引",
    "p23": "FBS では、様々な地域や世界各国の決済システム、銀行を介して資金の入出金をサポートしています。"
  },
  "ko": {
    "lang": "ko",
    "site": "https://kofbs.com",
    "p0": "돈을 버는 방법을 아나요?",
    "p1": "이제 당신의 돈이 당신을 위해 일하도록 할 때입니다!",
    "p2": "은행은 좋습니다, 하지만…",
    "p3": "당신의 모든 달걀을 한 바구니에 담지 마세요!",
    "p4": "우리가 제공하는 것은 무엇일까요?",
    "p5": "더 큰 수익을 더 빨리 벌기 위한 대안!",
    "f1": "당신의 성명",
    "f2": "이메일",
    "f3": "나는 IB 동의서의 약관을 읽었고 그에 동의합니다.",
    "f4": "IB 동의서",
    "f5": "계좌 개설하기",
    "p6": "교환 투자가 은행 서비스에서 돈을 벌려고 하는 것보다 왜 더 수익성이 있을가요?",
    "p7": "빠른 수익",
    "p8": "투자의 바로 첫 달 이내에 투자자들의 수익은 투자한 자금을 몇 배로 초과할 수 있지만 오직 인플레이션에 의해 무효화될 고정된 수익만을 가져오진 않습니다.",
    "p9": "빠른 출금",
    "p10": "투자자들은 경제적이고 정치적인 요인으로 그들의 자금을 계좌에서 마음대로 관리합니다. 반면에 은행 계좌의 소유자는 그런 기회에 대해 허용 하지 않습니다.",
    "p11": "수익은 매 월 지남에 따라 증가합니다",
    "p12": "순환에서 돈의 금액은 눈덩어리를 굴리는 것처럼 커집니다. 그리고 당신의 은행 계좌의 금액은 비용이 추가되지 않고 항상 같은 비율을 유지하면서 남아있을 것 입니다.",
    "p13": "투자로부터의 수익은 은행에서 보다 훨씬 더 높습니다",
    "p14": "투자자의 돈은 한 곳에서 머물지 않거나 심지어 저하면서 일을 하고 수익을 만듭니다. 당신의 은행 계좌에서 돈이 은행에 의해 당신이 아닌 그들의 수익을 벌기 위해서 사용됩니다.",
    "p15": "왜 FBS를 선택하나요?",
    "p16": "배움의 기회",
    "p17": "외환시장에서 이전에 거래해보지 않았더라도 우리의 투자 세미나와 온라인 보고서는 당신이 빠르게 기초 내용들을 이해하는데 도움을 줄 것입니다. 당신은 당신이 당신의 수익을 증가시키기 위한 올바른 결정을 만들 수 있도록 돕는 우리의 주요한 금융 분석가로부터의 전문 리뷰를 마음껏 사용합니다.",
    "p18": "프로모션과 보너스",
    "p19": "우리는 투자에서 당신의 경력을 쌓기 위해서 가장 우리한 조건을 제공합니다. 계좌를 개설하고 선호하는 통화 보너스를 선택하면 거기서 번 모든 수입은 완전히 당신의 것 입니다!",
    "p20": "당신의 모국어로 처리되는 24/7 지",
    "p21": "만약 당신이 다른 질문 사항이 있다면, 우리의 지원 팀은 항상 당신을 도울 준비가 되어 있습니다. 그들은 지체 없이 모든 당신의 투자 관련 질문에 대해 채팅이나 전화를 통하여 답변할 것입니다.",
    "p22": "편리한 금융 거래",
    "p23": "FBS는 다양한 국제적 및 현지의 지급 방식과 은행을 통한 자금의 예금과 출금을 지원합니다."
  },
  "ms": {
    "lang": "ms",
    "site": "https://fbsmy.com",
    "p0": "Tahu bagaimana untuk buat duit?",
    "p1": "Sudah tiba masanya untuk membuat wang anda bekerja untuk anda!",
    "p2": "Bank-Bank adalah baik, TETAPI…",
    "p3": "Jangan letakkan semua telur anda dalam satu bakul!",
    "p4": "Apa yang kami tawarkan?",
    "p5": "Cara-cara alternatif untuk mendapatkan keuntungan besar dengan lebih cepat!",
    "f1": "Nama penuh anda",
    "f2": "E-mail",
    "f3": "Saya telah membaca dan bersetuju dengan terma dan syarat Perjanjian IB",
    "f4": "Perjanjian IB",
    "f5": "Buka akaun dagangan",
    "p6": "Mengapa dagangan FOREX lebih menguntungkan dari perolehi perkhidmatan bank?",
    "p7": "Keuntungan yang cepat",
    "p8": "Dalam bulan pertama dagangan, keuntungan pedagang boleh berkali-kali ganda melebihi dana yang dilaburkan, tidak hanya faedah tetap yang akan terbatal oleh kesan inflasi.",
    "p9": "Pengeluaran pantas",
    "p10": "Pedagang-pedagang adalah bebas untuk menguruskan dana mereka mengambil kira faktor ekonomi dan politik. Manakala pemilik akaun bank akan dinafikan peluang tersebut.",
    "p11": "Keuntungan tumbuh pada setiap cukup bulan",
    "p12": "Jumlah wang dalam edaran semakin berkembang seperti bola salji yang berputar. Dan jumlah akaun bank anda akan kekal tidak berubah, membawa kadar faedah yang sama sepanjang masa.",
    "p13": "Keuntungan daripada perdagangan adalah lebih tinggi berbanding dari perbankan",
    "p14": "Wang pedagang bekerja dan membuat keuntungan, tidak tinggal di satu tempat atau pun akan turun. Manakala wang di akaun bank anda digunakan oleh Bank untuk mendapatkan keuntungan bagi mereka, bukan untuk anda.",
    "p15": "Kenapa pilih FBS?",
    "p16": "Peluang pembelajaran",
    "p17": "Walaupun anda tidak pernah berdagang di Forex sebelum ini, seminar latihan dan webinar kami akan membantu anda memahami asas-asas dengan cepat. Anda dialu-alukan untuk menggunakan ulasan pakar dari kami penganalisis kewangan terkemuka, yang akan membantu anda membuat keputusan yang tepat untuk meningkatkan keuntungan anda.",
    "p18": "Promosi dan bonus",
    "p19": "Kami menawarkan syarat-syarat yang paling menguntungkan untuk memulakan kerjaya anda dalam perdagangan. Cipta akaun dan pilih pilihan bonus kewangan, dan semua pendapatan yang anda terima darinya adalah benar-benar milik anda!",
    "p20": "Sokongan 24/7 dalam bahasa ibunda anda",
    "p21": "Jika anda mempunyai sebarang soalan, pasukan sokongan kami sentiasa sedia untuk membantu. Mereka akan segera menjawab segala pertanyaan anda tentang perdagangan melalui chat atau melalui telefon.",
    "p22": "Transaksi kewangan yang mudah",
    "p23": "FBS menyokong deposit dan pengeluaran dana melalui pelbagai sistem pembayaran antarabangsa dan tempatan dan bank - bank."
  },
  "pt": {
    "lang": "pt",
    "site": "https://ptfbs.com",
    "p0": "Sabe como ganhar dinheiro?",
    "p1": "É hora de fazer seu dinheiro trabalhar para você!",
    "p2": "Os bancos são bons, MAS…",
    "p3": "Não ponha todos os seus ovos no mesmo cesto!",
    "p4": "O que oferecemos?",
    "p5": "Formas alternativas de obter grandes lucros mais rápido!",
    "f1": "Seu nome completo",
    "f2": "E-mail",
    "f3": "Eu li e concordei com os termos e condições do Acordo de IB",
    "f4": "Acordo de IB",
    "f5": "Abrir conta comercial",
    "p6": "Por que o comércio FOREX é mais lucrativo do que os serviços bancários?",
    "p7": "Lucros rápidos",
    "p8": "No primeiro mês de negociações, o lucro do comerciante pode chegar a ser várias vezes maior que o dinheiro investido, em vez de lhe trazer juros fixos que serão anulados pela inflação.",
    "p9": "Saques rápidos",
    "p10": "Os comerciantes são livres para gerenciar seus fundos, levando em conta fatores econômicos e políticos, enquanto os proprietários de contas bancárias são privados dessa oportunidade.",
    "p11": "Os lucros crescem a cada mês",
    "p12": "A quantidade de dinheiro em circulação cresce como uma bola de neve rolando. Esta quantia fica inalterada em sua conta bancária, levando a mesma taxa de juros o tempo todo.",
    "p13": "O lucro das negociações é muito mais alto que o do banco",
    "p14": "O dinheiro dos comerciantes está trabalhando para trazer lucros, não fica parado (ou até diminuindo) em algum lugar. O dinheiro nos bancos é utilizado pelos mesmos para trazer lucros a eles, não a você.",
    "p15": "Por que escolher a FBS?",
    "p16": "Oportunidades de aprendizado",
    "p17": "Mesmo se você nunca tiver negociado em Forex antes, nossos seminários de treinamento e webinários irão ajudá-lo a rapidamente compreender o básico. Você é bem-vindo a utilizar as resenhas de nossos analistas financeiros líderes, que irão ajudá-lo a tomar as decisões certas para aumentar seus lucros.",
    "p18": "Promoções e bônus",
    "p19": "Oferecemos as condições mais favoráveis para iniciar sua carreira no mercado. Crie uma conta e escolha um bônus monetário preferido, e todos os rendimentos que você receber dele são totalmente seus!",
    "p20": "Suporte 24/7 em seu idioma nativo",
    "p21": "Se você tiver alguma dúvida, nossa equipe de suporte está sempre pronta para ajudar. Eles prontamente responderão todas suas perguntas sobre o mercado, através de chat ou por telefone.",
    "p22": "Transações financeiras convenientes",
    "p23": "A FBS aceita depósitos e saques via uma variedade de bancos e sistemas de pagamentos locais e internacionais."
  },
  "th": {
    "lang": "th",
    "site": "https://fbs.co.th",
    "p0": "คุณรู้วิธีการทำเงินหรือไม่?",
    "p1": "ได้เวลาที่จะให้เงินทำงานให้คุณแล้ว!",
    "p2": "ธนาคารดี แต่...",
    "p3": "อย่าใส่ไข่ทั้งหมดลงในตะกร้าใบเดียว!",
    "p4": "เรามีอะไรให้คุณบ้าง?",
    "p5": "อีกหนึ่งทางเลือกเพื่อให้ได้ผลกำไรเร็วขึ้น!",
    "f1": "ชื่อเต็มของคุณ",
    "f2": "อีเมล์",
    "f3": "ฉันได้อ่านและยอมรับในข้อตกลงและเงื่อนไขของ สัญญาข้อตกลง IB",
    "f4": "สัญญาข้อตกลง IB",
    "f5": "เปิดบัญชี",
    "p6": "ทำไมซื้อขายผ่าน FOREX ทำกำไรมากกว่าการฝากเงินกับจากธนาคาร?",
    "p7": "ได้กำไรอย่างรวดเร็ว",
    "p8": "ภายในเดือนแรกของการซื้อขาย กำไรของเทรดเดอร์อาจหลายครั้งจนมากกว่าเงินลงทุน ซึ่งไม่ทำให้คุณแค่เพียงดอกเบี้ยคงที่ ซึ่งแทบจะตัดทิ้งเมื่อคำนึงถึงอัตราเงินเฟ้อ",
    "p9": "ถอนเงินได้รวดเร็ว",
    "p10": "เทรดเดอร์มีอิสระในการจัดการเงินของพวกเขาโดยพิจารณาปัจจัยทางเศรษฐกิจและการเมือง ในขณะที่เจ้าของบัญชีธนาคารไม่มีโอกาสเช่นนั้น",
    "p11": "กำไรเติบโตในแต่ละเดือนที่ผ่านไป",
    "p12": "จำนวนเงินมีการไหลเวียนและมีการเติบโต เช่นก้อนหิมะที่กำลังกลิ้ง และยอดเงินของบัญชีธนาคารของคุณจะยังคงไม่เปลี่ยนแปลง แต่จะแบกดอกเบี้ยอัตราแบบเดียวตลอดเวลา",
    "p13": "กำไรจากการซื้อขายจะสูงกว่าการได้รับจากธนาคาร",
    "p14": "เงินที่ได้ของเทรดเดอร์เป็นสิ่งที่ทำได้และได้กำไร ไม่ได้อยู่กับที่แค่จุดหนึ่งหรือแม้แต่จะลดลง ในขณะที่เงินในบัญชีธนาคารของคุณถูกใช้โดยธนาคารและกำไรให้กับธนาคาร ไม่ใช่สำหรับคุณ",
    "p15": "ทำไมต้องเลือก FBS?",
    "p16": "การเรียนรู้เพื่อโอกาส",
    "p17": "แม้ว่าคุณไม่ได้ซื้อขายในตลาด Forex มาก่อน แต่การสัมมนาฝึกอบรมของเราจะช่วยคุณได้อย่างรวดเร็วในการเข้าใจพื้นฐานเรายินดีที่จะใช้ความคิดเห็นจากผู้เชี่ยวชาญจากเรานักวิเคราะห์ทางการเงินชั้นนำ ซึ่งจะช่วยให้คุณตัดสินใจที่เหมาะสมในการเพิ่มกำไรของคุณ",
    "p18": "โปรโมชั่นและโบนัส",
    "p19": "เราเสนอเงื่อนไขดีที่สุดในการเริ่มงานของคุณกับการซื้อขายสร้างบัญชีผู้ใช้ และเลือกโบนัสเงินที่ต้องการ และรายได้ทั้งหมดที่คุณได้รับจากมันจะเป็นของคุณทั้งหมด",
    "p20": "เราซัพพอร์ตคุณด้วยภาษาของคุณตลอด 24 ชั่วโมงในทุกวั",
    "p21": "หากคุณมีคำถามใด ๆ ทีมซัพพอร์ตของเราพร้อมอยู่เสมอที่จะช่วยคุณพวกเขาจะตอบทุกคำถามเกี่ยวกับการซื้อขายโดยทันที ผ่านการแชทหรือทางโทรศัพท์",
    "p22": "การทำธุรกรรมการเงินที่สะดวก",
    "p23": "FBS รองรับการฝากและถอนเงิน ผ่านความหลากหลายของระบบการชำระเงินระหว่างประเทศ ในประเทศและธนาคาร"
  },
  "vi": {
    "lang": "vi",
    "site": "https://vnfbs.com",
    "p0": "Làm thế nào để kiếm tiền?",
    "p1": "Đây là thời điểm để đồng tiền làm việc cho bạn!",
    "p2": "Gửi ngân hàng cũng tốt, NHƯNG…",
    "p3": "Đừng đặt tất cả trứng trong cùng một giỏ!",
    "p4": "Chúng tôi có ưu đãi gì cho bạn?",
    "p5": "Rất nhiều lựa chọn để kiếm được lợi nhuận lớn nhanh chóng!",
    "f1": "Họ và tên",
    "f2": "E-mail",
    "f3": "Tôi đã đọc và đồng ý với các điều khoản và điều kiện của Thỏa Thuận IB",
    "f4": "Thỏa Thuận IB",
    "f5": "Mở 1 tài khoản",
    "p6": "Tại sao giao dịch FOREX kiếm được lợi nhuận cao hơn sử dụng các dịch vụ ngân hàng?",
    "p7": "Kiếm lợi nhuận nhanh chóng",
    "p8": "Trong tháng đầu giao dịch, lợi nhuận của trader có thể vượt quỹ đầu tư nhiều lần, đem đến cho bạn mức lãi suất cố định, không bị ảnh hưởng bởi lạm phát.",
    "p9": "Rút tiền nhanh chóng",
    "p10": "Trader có thể tự do quản lý các quỹ của họ, tính đến các yếu tố kinh tế và chính trị. Trong khi đó, các chủ sở hữu của các tài khoản ngân hàng đang bị tước đoạt những cơ hội như vậy.",
    "p11": "Lợi nhuận tăng trưởng theo từng tháng",
    "p12": "Dòng tiền lưu thông sẽ mỗi lúc một lớn hơn. Và số tiền trong tài khoản ngân hàng của bạn không thay đổi, mang đến bạn mức lãi suất cố định mọi thời gian.",
    "p13": "Lợi nhuận từ giao dịch cao hơn nhiều so với tiết kiệm ngân hàng",
    "p14": "Tiền của trader liên tục làm việc và tạo ra lợi nhuận, không dừng tại chỗ và thậm chí cũng không suy giảm. Trong khi tiền trong tài khoản ngân hàng của bạn đang được các ngân hàng sử dụng để tạo lợi nhuận cho họ, chứ không phải cho bạn.",
    "p15": "Vì sao nên chọn FBS?",
    "p16": "Cơ hội học hỏi",
    "p17": "Ngay cả khi bạn chưa bao giờ giao dịch ngoại hối trước đây, các hội thảo đào tạo offline và online của chúng tôi sẽ giúp bạn nhanh chóng nắm các kiến thức căn bản. Chúng tôi hoan nghênh bạn học hỏi những đánh giá chuyên môn từ các nhà phân tích tài chính hàng đầu của chúng tôi, chúng sẽ giúp bạn quyết định đúng đắn hơn để tăng lợi nhuận cho mình.",
    "p18": "Các chương trình khuyến mãi và thưởng",
    "p19": "Chúng tôi cung cấp các điều kiện thuận lợi nhất để bạn bắt đầu sự nghiệp giao dịch của mình. Tạo tài khoản và chọn khoản tiền thưởng mong muốn, tất cả thu nhập nhận được từ khoản thưởng đó hoàn toàn là của bạn!",
    "p20": "Hỗ trợ bằng ngôn ngữ của bạn 24/7",
    "p21": "Nếu bạn có bất kỳ thắc mắc nào, đội ngũ hỗ trợ của chúng tôi luôn sẵn sàng giải đáp. Chúng tôi sẽ nhanh chóng giải đáp mọi thắc mắc của bạn về giao dịch thông qua chat hoặc điện thoại.",
    "p22": "Giao dịch tài chính thuận tiện",
    "p23": "FBS hỗ trợ ký quỹ và rút quỹ thông qua các hệ thống thanh toán, ngân hàng quốc tế và địa phương."
  },
  "tr": {
    "lang": "tr",
    "site": "https://trfbs.com",
    "p0": "Nasıl para kazanılacağını biliyor musunuz?",
    "p1": "Paranızın sizin için çalışma zamanı geldi!",
    "p2": "Bankalar iyi, AMA…",
    "p3": "Tüm yumurtalarınızı tek bir sepete koymayın!",
    "p4": "Ne sunuyoruz?",
    "p5": "Büyük kazanç elde etmenin alternatif yolları!",
    "f1": "Your full name",
    "f2": "E-mail",
    "f3": "I accept Customer Agreement conditions and accept all risks inherent with trading operations on the world financial markets.",
    "f4": "Agreement",
    "f5": "Open account",
    "p6": "FOREX yatırımı neden banka hizmetlerinden kazanmaktan daha karlı?",
    "p7": "Hızlı kar",
    "p8": "Yatırımın ilk ayında, yatırımcının kârı, yatırım fonu sayısını aşabilir, yalnızca sabit faiz getirmez, bu da enflasyonla sonuçsuz kalır.",
    "p9": "Hızlı para çekme",
    "p10": "Yatırımcılar, ekonomik ve politik faktörleri dikkate alarak fonlarını yönetebilirler. Banka hesaplarının sahipleri böyle bir fırsattan yoksundurlar.",
    "p11": "Karlar her geçen ay büyür",
    "p12": "Dolaşımdaki para miktarı, sarmalı bir kartopu gibi büyüyor. Ve banka hesabınızın tutarı değişmeden kalacak ve aynı faiz oranını daima taşıyacak.",
    "p13": "Yatırımdan elde edilen kâr, bankacılıktan çok daha yüksektir",
    "p14": "Yatırımcıların parası çalışıyor ve kar elde ediyor, bir yerde kalmamak veya bir yere inmek bile değil. Banka hesabınızdaki paralar bankalar tarafından kendileri için kar elde etmek için kullanılmaktadır sizin için değil.",
    "p15": "Neden FBS'yi seçmelisiniz?",
    "p16": "Öğrenme fırsatları",
    "p17": "Daha önce hiç Forex'te işlem yapmamış olsanız bile, eğitim seminerlerimiz ve web seminerleri temel bilgileri çabucak anlamanıza yardımcı olacaktır. Kârınızı artırmak için doğru kararları vermenize yardımcı olacak önde gelen finansal analistlerimizden gelen uzman görüşleri kullanabilirsiniz.",
    "p18": "Promosyonlar ve bonuslar",
    "p19": "Yatırımda kariyerinize başlamanız için en uygun koşulları sunuyoruz. Bir hesap oluşturun ve tercih edilen bir parasal bonus seçin ve bundan elde ettiğiniz tüm gelir tamamen sizindir!",
    "p20": "Ana dilinizdeki müşteri desteği 24/7",
    "p21": "Herhangi bir sorunuz varsa, destek ekibimiz her zaman yardımcı olmaya hazırdır. Sohbet yoluyla ya da telefonla yatırımla ilgili tüm sorularınızı derhal cevaplayacaklar.",
    "p22": "Uygun finansal işlemler",
    "p23": "FBS, çeşitli uluslararası ve yerel ödeme sistemleri ve bankalar aracılığıyla para yatırma ve çekmeyi desteklemektedir."
  },
  "my": {
    "lang": "my",
    "site": "https://fbs.com.mm",
    "p0": "ဝင္​​ေငြရ​ေအာင္​ဘယ္​လို႐ွာ​ေဖြရမလဲ သိပါသလား?",
    "p1": "ဒီအခ ်် ိိန္​ဟာ သင္​့အတြက္​ ​ပိုက္​ဆံ႐ွာရမယ္​့ အခ ်် ိိန္​ပါ!",
    "p2": "ဘဏ္​​ေတြမွာ စု​ေဆာင္​းတာဟာ​ေကာင္​းပါတယ္​, သို ့့​ေသာ္​...",
    "p3": "မိမိပိုင္​ဆိုင္​သမ ်ွကို တစ္​​ေနရာထဲမွာ အကုန္​မရင္​းႏွီးပစ္​ပါႏွင့္!",
    "p4": "က ြြၽႏု ္​ပ္​တို ့့ ဖိတ္​​ေခၚ ကမ္​းလွမ္​းခ ််င္​တာက ဘာမ ် ားပါလဲ?",
    "p5": "အျမတ္​​ေငြမ ်် ားမ ်် ား ႏွင့္ျမန္ျ​မန္​ ႐ွာ​ေဖြရ႐ွိႏိုင္​မည့္နည္းလမ္​းမ ်် ား႐ွိပါသည္​!",
    "f1": "နာမည္အျပည့္အစုံ",
    "f2": "အီးေမး",
    "f3": "IB သေဘာတူညီမႈ ၏စည္းမ်ဥ္းႏွင့္ ကန္႔သတ္ခ်က္မ်ားအား ကၽြႏ္ုပ္ဖတ္ရႈၿပီးသေဘာတူညီပါသည္။",
    "f4": "IB သေဘာတူညီမႈ",
    "f5": "အေကာင့္ဖြင့္ပါ",
    "p6": "ဘဏ္​​ေတြမွာ​ေငြစုတာထက္​ FOREXမွာ အ​ေရာင္​းအဝယ္​လုပ္​တာက ဘာ​ေၾကာင္​့မ ်် ား အျမတ္​​ေငြပိုရလြယ္​တာလဲ?",
    "p7": "ျမန္​ျမန္​ရမယ္​့ အျမတ္​​ေငြမ ်် ား",
    "p8": "အေရာင္းအ၀ယ္လုပ္ျပီး ပထမလအတြင္းမွာပဲ ရတဲ ့အျမတ္ေငြပမာဏဟာ ဘဏ္မွာေငြစုလို ့ရတဲ့အတိုးထက္ မ ် ားစြာသာလြန္မွာပါ, ဘဏ္ကရတဲ ့အတိုးဟာ ပံုေသနွ ုန္းျဖစ္ျပီး ရတဲ ့အတိုးဟာလည္းအလြန္နည္းပါးပါတယ္ ထို ့ျပင္ ေငြေဖာင္းပြမွ ုေၾကာင့္ မိမိေငြ တန္ဖိုးေလ ် ာ့နည္းသြားမွာကိုလည္း စိုးရိမ္ရပါေသးတယ္.",
    "p9": "လ ်ွ်ွင္​လ ်ွ်ွင္​ျမန္​ျမန္​​ေငြထုတ္​ယူႏိုင္​ျခင္​း",
    "p10": "နိုင္ငံေရးအေျခအေန စီးပြားေရးအေျခအေနေတြ တစ္ခုခုရုတ္ရုတ္သဲသဲျဖစ္ေပၚလာလ ွ်င္လည္း Traderေတြကေတာ ့ သူတို ့ေငြကို သူတို ့ ဆႏၵရွိသလို စီမံနိုင္ပါတယ္. ဘဏ္မွာေငြစုထားတဲ ့သူတစ္ေယာက္မွာေတာ ့ ထိုကဲ ့သို ့ေသာ အခြင့္အေရးမ ် ားကို ရရွိမွာ မဟုတ္ပါဘူး.",
    "p11": "တစ္လျပီးတစ္လကုန္ဆံုးသြားတိုင္း အျမတ္ေငြမ ် ား တိုးပြားလာမွာျဖစ္ပါတယ္",
    "p12": "ဘဏ္မွာစုထားတဲ ့ ေငြပမာဏတိုးပြားမွ ုကို ထိုင္ေစာင့္ေနရမယ္ ဆိုလ ွ်င္ နွစ္မ ် ားစြာၾကာမွာပါ. ဘဏ ္တိုးနွ ုန္းကလဲ နွစ္စဥ္နွစ္တိုင္း ဒီနွ ုန္းအတိုင္းပဲ မေျပာင္းမလဲရွိေနမွာပါ.",
    "p13": "forexအေရာင္းအ၀ယ္လုပ္လို ့ရတဲ ့ အျမတ္ေငြမ ် ားဟာ ဘဏ္ကရတဲ ့ အတိုးထက ္ ပိုမိုမ ် ားျပားပါတယ္",
    "p14": "ဘဏ္မွာ သင္စုထားတဲ ့ ေငြေႀကးေတြကို ဘဏ္ေတြက သူတို ့အတြက္အျမတ္ရမယ့္ေနရာမွာ အသံုးျပဳရင္းနွီးၾကမွာပါ. သင့္ေငြေတြနဲ ့ သူတို ့အျမတ္ရေအာင္ရင္းနွီးျပီး သင့္ကိုေတာ ့ အတိုးနည္းနည္းေလးသာေပးပါလိမ့္မယ္. Traderတစ္ေယာက္ကေတာ့ သူ ့ပိုက္ဆံကို သူ ့ဖာသာရင္းနွီးလုပ္ကိုင္ျပီး ရရွိတဲ ့ အျမတ္အားလံုးသည္လည္း သူ ့တစ္သီးတည္း အပိုင္သာျဖစ္ပါတယ္.",
    "p15": "FBSကို ဘာ​ေၾကာင္​ ့့​ေရြးခ ််ယ္​တာလဲ?",
    "p16": "သင္​ယူ​ေလ့လာႏိုင္​မယ္​ ့့ အခြင္​့အလမ္​းမ ်် ား",
    "p17": "သင္ယခင္က တစ္ၾကိမ္တစ္ခါမ ွ် Forexမွာ အေရာင္းအ၀ယ္မလုပ္ဖူးဘူးဆိုလ ွ်င္ေတာင္မွ, က ၽြနု္တို ့၏ ေလ့က ်င့္ေရးဆိုင္ရာ သင္တန္းေတြ ့ဆံုပြဲေတြ နွင့္ အင္တာနက္ေပၚတြင္သင္ၾကားေပးေသာ ေတြ့ဆံုေဆြးေႏြးပြဲေတြက သင့္ကိုအေျခခံအားျဖင့္ သေဘာေပါက္နားလည္ေအာင္ ကူညီေပးနိုင္ပါလိမ့္မယ္. သင့္ရဲ ့အျမတ္ေငြတိုးပြားေစမယ့္ အေရာင္းအ၀ယ္ဆံုးျဖတ္ခ ်က္ေတြ ခ ်မွတ္ရာမွာ အေထာက္အကူျဖစ္ေစဖို ့အတြက္ FBSရဲ ့ ေငြေၾကးဆိုင္ရာ သံုးသပ္ခ ်က္မ ် ားမွ က ၽြမ္းက ်င္ပညာရွင္မ ် ားရဲ ့သံုးသပ္ခ ်က္ေတြကိုလည္း ၀န္ေဆာင္မွ ုေပးလ ွ်က္ရွိပါတယ္.",
    "p18": "ပ႐ိုမိုး႐ွင္​း ႏွင့္ အပိုဆုမ ်် ား",
    "p19": "သင္ အေရာင္းအ၀ယ္စတင္လုပ္ေဆာင္ရာမွာ အေကာင္းဆံုးအေျခအေန ရလဒ္ေတြကို ရရွိေအာင္ ကူညီေပးခ ်င္ပါတယ္. အေကာင့္တစ္ခုဖြင့္ျပီး နွစ္သက္ရာ ေငြေၾကးအပိုဆုအစီအစဥ္ကိုေရြးခ ်ယ္လိုက္တာနဲ ့ ထိုအစီအစဥ္က ရရွိသမ ွ် ၀င္ေငြအားလံုးဟာ သင့္၀င္ေငြမ ် ားပင္ျဖစ္ပါတယ္!",
    "p20": "သင္​့ရဲ ့့မိခင္​ဘာသာစကားနဲ ့့ ၂၄/၇ အခ ်် ိိန္​ျပည္​့ အကူအညီ​ေပး ဝန္​​ေဆာင္​မွ ု",
    "p21": "သင့္မွာ ဘယ္လိုျပသနာ ဘယ္လိုေမးခြန္းမ ် ိဳးပဲရွိရွိ အကူအညီေပးေရးအဖြဲ ့က ကူညီေျဖရွင္းေပးဖို ့ အသင့္ပါပဲ. အ​ေရာင္​းအဝယ္​နဲ ့့ပက္​သက္​တဲ့​ေမးခြန္​းအားလံုးကို အကူအညီ​ေပး​ေရးအဖြဲ ့့မွ ဖုန္​း(သို ့့) စာျဖင္​့ အခ ်် ိိန္​တိုအတြင္​း ျပန္​လည္​​ေျဖၾကား​ေပးသြားပါမည္​.",
    "p22": "ေငြေၾကးအသြင္း၊အထုတ္နွင့္ လြဲေျပာင္းရာမွာ အဆင္ေျပလြယ္ကူျခင္း",
    "p23": "FBSတြင္​ ျပည္​တြင္​း​ဘဏ္​ႏွင္​ ့့​ျပည္​တြင္​း​ေငြ​ေပး​ေခ ်် စနစ္​မ ်် ားသာမက ႏိုင္​ငံတကာ​ေငြ​ေပး​ေခ ်် စနစ္​မ ််ားျဖင္​့ပါ​ေငြသြင္​း/ထုတ္​ လုပ္​ႏိုင္​​ပါသည္​."
  }
}
