<?xml version="1.0" encoding="utf-8"?>
<!-- Generated by IcoMoon.io -->
<!DOCTYPE svg PUBLIC "-//W3C//DTD SVG 1.1//EN" "http://www.w3.org/Graphics/SVG/1.1/DTD/svg11.dtd">
<svg version="1.1" xmlns="http://www.w3.org/2000/svg" xmlns:xlink="http://www.w3.org/1999/xlink" width="819" height="1024" viewBox="0 0 819 1024">
<g id="icomoon-ignore">
</g>
<path fill="#000" d="M174.467 948.992h121.633l97.306 70.954c4.054 4.054 10.136 4.054 14.19 4.054s10.136-2.026 14.19-4.054l97.306-70.954h121.633c10.136 0 20.273-6.082 24.326-18.246l38.519-115.553 97.306-70.954c8.11-6.082 12.163-18.246 10.136-28.382l-34.463-115.553 38.519-115.553c4.054-10.136 0-22.299-10.136-28.382l-97.306-70.954-38.519-115.553c-4.054-10.136-12.163-18.246-24.326-18.246h-121.633l-97.306-70.954c-8.11-6.082-20.273-6.082-30.409 0l-97.306 70.954h-121.633c-10.136 0-20.273 6.082-24.326 18.246l-38.519 115.553-97.306 70.954c-8.11 6.082-12.163 18.246-10.136 28.382l36.489 115.553-38.519 115.553c-4.054 10.136 0 22.299 10.136 28.382l97.306 70.954 38.519 115.553c4.054 10.136 14.19 18.246 24.326 18.246zM58.915 713.835l34.463-105.416c2.026-6.082 2.026-10.136 0-16.216l-34.463-105.416 89.198-64.871c4.054-4.054 8.11-8.11 10.136-12.163l34.463-105.416h111.497c6.082 0 10.136-2.026 14.19-4.054l91.224-66.898 89.198 64.871c4.054 4.054 10.136 4.054 14.19 4.054h111.497l34.463 105.416c2.026 6.082 4.054 10.136 10.136 12.163l89.198 64.871-34.463 105.416c-2.026 6.082-2.026 10.136 0 16.216l34.463 105.416-89.198 64.871c-4.054 4.054-8.11 8.11-10.136 12.163l-34.463 105.416h-111.497c-6.082 0-10.136 2.026-14.19 4.054l-89.198 68.925-89.198-64.871c-4.054-4.054-10.136-4.054-14.19-4.054h-111.497l-34.463-105.416c-2.026-6.082-4.054-10.136-10.136-12.163l-91.224-66.898z"></path>
<path fill="#000" d="M409.623 723.972c-28.382 0-50.681-18.246-50.681-40.545 0-14.19-12.163-24.326-24.326-24.326s-26.353 10.136-26.353 24.326c0 42.571 32.435 77.034 77.034 87.17v46.625c0 14.19 12.163 24.326 24.326 24.326s24.326-12.163 24.326-24.326v-46.625c42.571-10.136 75.008-44.599 75.008-87.17 0-62.844-48.653-89.198-89.198-111.497-36.489-20.273-58.789-32.435-58.789-58.789 0-10.136 6.082-18.246 10.136-22.299 8.11-8.11 22.299-14.19 34.463-14.19 24.326 0 44.599 16.216 44.599 36.489 0 14.19 12.163 24.326 24.326 24.326s24.326-12.163 24.326-24.326c0-40.545-30.409-72.98-70.954-83.116v-46.625c0-14.19-12.163-24.326-24.326-24.326s-24.326 12.163-24.326 24.326v46.625c-18.246 4.054-34.463 12.163-46.625 24.326-16.216 16.216-24.326 36.489-24.326 56.761 0 56.761 46.625 83.116 85.144 103.387s62.844 36.489 62.844 66.898c4.054 24.326-18.246 42.571-46.625 42.571z"></path>
</svg>
