<?xml version="1.0" encoding="utf-8"?>
<!-- Generated by IcoMoon.io -->
<!DOCTYPE svg PUBLIC "-//W3C//DTD SVG 1.1//EN" "http://www.w3.org/Graphics/SVG/1.1/DTD/svg11.dtd">
<svg version="1.1" xmlns="http://www.w3.org/2000/svg" xmlns:xlink="http://www.w3.org/1999/xlink" width="819" height="1024" viewBox="0 0 819 1024">
<g id="icomoon-ignore">
</g>
<path fill="#000" d="M525.189 290.948c-86.665 0-159.428 108.739-206.031 227.289 7.359 11.446 14.716 22.892 22.073 35.975 42.513-118.55 112.007-230.557 183.958-230.557 117.733 0 228.106 300.051 228.106 436.589 0 125.909-102.197 228.106-228.106 228.106-48.238 0-92.386-14.716-129.995-40.879-5.724 9.811-11.446 17.987-18.805 26.982 42.513 29.433 93.203 46.603 147.983 46.603 143.896 0 260.808-116.916 260.808-260.808 0.817-139.806-109.556-469.295-259.991-469.295z"></path>
<path fill="none" stroke="#000" stroke-width="33.8125" stroke-miterlimit="10" stroke-linecap="butt" stroke-linejoin="miter" d="M379.658 830.555c0-95.658-77.671-321.313-173.329-321.313s-173.329 225.654-173.329 321.313 77.671 173.329 173.329 173.329 173.329-77.671 173.329-173.329z"></path>
</svg>
